final_project
…
# Display summary table
print(monthly_orders)

# Plot
ggplot(monthly_orders, aes(x = Order_Month, y = Orders)) +
  geom_line(color = "purple", size = 1) +
  scale_x_date(date_labels = "%Y-%m", date_breaks = "3 months") +
  labs(title = "Monthly Order Volume", x = "Month", y = "Number of Orders") +
  theme(axis.text.x = element_text(angle = 45, hjust = 1))

# A tibble: 48 × 2
   Order_Month Orders
   <date>       <int>
 1 2011-01-01     122
 2 2011-02-01     111
 3 2011-03-01     254
 4 2011-04-01     208
 5 2011-05-01     221
 6 2011-06-01     285
 7 2011-07-01     202
 8 2011-08-01     320
 9 2011-09-01     460
10 2011-10-01     318
# ℹ 38 more rows
…
# Plot with overlaid lines
ggplot(monthly_margin, aes(x = Order_Month)) +
  geom_line(aes(y = Margin, color = "Profit Margin"), size = 1) +
  geom_line(aes(y = Orders / max(Orders), color = "Order Volume (scaled)"), size = 1, linetype = "dashed") +
  scale_y_continuous(labels = percent_format(), sec.axis = sec_axis(~ . * max(monthly_margin$Orders), name = "Orders")) +
  scale_x_date(date_labels = "%Y-%m", date_breaks = "3 months") +
  labs(title = "Monthly Profit Margin and Order Volume",
       x = "Month",
       y = "Profit Margin",
       color = "") +
  theme_minimal() +
  theme(axis.text.x = element_text(angle = 45, hjust = 1))

# A tibble: 48 × 5
   Order_Month Monthly_Sales Monthly_Profit Orders Margin
   <date>              <dbl>          <dbl>  <int>  <dbl>
 1 2011-01-01         26921.          4632.    122 0.172 
 2 2011-02-01         23604.          4376.    111 0.185 
 3 2011-03-01         82024.          6185.    254 0.0754
 4 2011-04-01         49002.          8024.    208 0.164 
 5 2011-05-01         54993.          7309.    221 0.133 
 6 2011-06-01         88031.         14625.    285 0.166 
 7 2011-07-01         51411.           983.    202 0.0191
 8 2011-08-01         84874.         14635.    320 0.172 
 9 2011-09-01        146603.         19598.    460 0.134 
10 2011-10-01         88578.         14056.    318 0.159 
# ℹ 38 more rows
…
